0
0.01
7.05
272.85
186.35
218.65
114.37
0.97
0
79.28
234.2
366.25
521.48
657.19
652.77
595.46
495.57
421.83
319.85
74.21
1.87
0.71
0
0
0
6.4
304.54
166.16
101.31
24.71
108.6
302.92
500.38
901.9
817.46
804.74
623.43
793.74
1120.92
1028.18
877.3
441.51
67.5
0.27
0.21
0
0
0
43.28
262.25
769.4
658.9
762.78
1047.92
1061.8
1044.33
1115.08
1088.02
1007.91
578.16
158.31
97.67
347.64
422.02
229.22
36.81
0.12
0
0
28.76
199.04
571.2
1153.49
1517.32
1203.32
1233.86
1153.39
1150.86
1191.83
1148.23
881.52
720.2
462.72
202.11
77.91
50.52
47.4
153.37
109.09
4.79
0
0
276.43
448.31
844.1
1898.12
1599.04
1323.06
1194.86
1253.28
1057.24
826.37
715.25
647.68
582.36
329.34
193.9
175.38
138.03
201.6
261.9
293.01
100.15
165.78
261.58
809.56
1354.95
1917.81
1669.69
931.49
937.58
753.15
759.89
681.09
630.29
563.61
545.58
440.36
253.52
183.82
174.38
172.08
283.22
311.91
456.17
572.6
606.84
426.85
1230.39
1538.26
1168.43
845.14
684.27
721.04
574.18
613.09
573.05
524.11
503.71
470.68
362.18
256.26
261.18
205.67
274.88
312.67
361.02
457.73
596.09
632.41
469.12
907.02
523.66
577.31
587.72
569.69
546.41
535.84
451.92
397.84
367.22
399.74
488.52
390.66
354.67
317.77
300
325.77
358.04
490.25
583.59
636.93
635.39
582.64
435.57
490.89
490
461.87
513.48
429.09
378.48
348.86
299.41
345.03
473.81
604.01
557.63
508.98
459.27
372.7
436.42
505.71
615.38
623.46
596.2
562.46
605.66
443.35
401.46
404.28
416.19
510.56
420.76
364.48
343.41
292.29
333.77
418.79
375.13
442.5
491.34
514.4
441.25
482.35
546.41
579.87
527.51
541.35
523.92
529.6
417.28
409.57
444.42
480.3
522.13
434.19
374.36
308.26
284.14
220.28
185.39
251.09
406.76
600.47
790.95
699.89
729.84
681.29
641.59
600.18
577.95
599.51
544.97
409.3
420.43
426.41
385.45
350.71
326.08
315.1
302.83
293.15
282.48
298.95
328.52
587.44
975.95
900.42
1072.88
1305.78
1294.34
980.55
719.05
810.37
715.78
625.46
342.33
363.97
332.13
304.76
302.21
301.01
295.46
311.21
324.23
311.64
447.7
461.62
661.68
894.51
1166.3
1185.92
1234.4
1111.7
1213.58
985.26
881.64
791.01
641.5
294.77
293.91
297.02
280.69
287.86
282.73
281.65
345.64
338.32
322.26
444.12
517.95
583.19
839.83
1500.55
1553.59
1253.22
1028.56
830.78
904.61
912.69
809.3
658.44
296.53
320.78
299.7
292.7
273.01
284.6
297.32
334.81
343.89
348.41
402.22
467.31
547.43
765.3
1138.83
971.32
932.95
1022.63
705.1
667.45
766.08
788.05
748.25
315.37
330.57
291.04
294.9
288.98
303.52
335.68
329.1
359.93
415.56
414.84
526.21
610.18
637.31
671.41
682.17
625.18
815.25
761.03
560.33
564.49
649.51
605.15
321.96
313.32
289.6
292.68
287.09
296.9
313.86
321.34
375.34
439.11
549.65
673.89
707.88
545.2
538.62
544.24
565.25
775.89
644.98
555.12
554.44
508.3
509.31
345.09
337.65
316.19
304.3
299.19
287.99
286.44
285.89
455.18
450.81
590.76
609.23
483.29
453.71
455.74
457.59
518.97
890.08
717.08
570.28
545.89
508.94
440.78
306.67
336.19
313.53
328.93
330.25
286.77
257.01
282.22
450.28
421.57
475.91
493.79
412.99
429.99
453.97
460.19
495.46
960.2
935.61
563.14
529.64
557.83
469.35
